Part 4 - Flow Control Instructions/cpu_wavedata_group27.vcd
$date
	Mon Feb 07 21:07:40 2022
$end
$version
	Icarus Verilog
$end
$timescale
	1s
$end
$scope module cpu_tb $end
$scope module mycpu $end
$scope module group27RegisterFile $end
$var reg 8 ! \register[0] [7:0] $end
$upscope $end
$upscope $end
$upscope $end
$scope module cpu_tb $end
$scope module mycpu $end
$scope module group27RegisterFile $end
$var reg 8 " \register[1] [7:0] $end
$upscope $end
$upscope $end
$upscope $end
$scope module cpu_tb $end
$scope module mycpu $end
$scope module group27RegisterFile $end
$var reg 8 # \register[2] [7:0] $end
$upscope $end
$upscope $end
$upscope $end
$scope module cpu_tb $end
$scope module mycpu $end
$scope module group27RegisterFile $end
$var reg 8 $ \register[3] [7:0] $end
$upscope $end
$upscope $end
$upscope $end
$scope module cpu_tb $end
$scope module mycpu $end
$scope module group27RegisterFile $end
$var reg 8 % \register[4] [7:0] $end
$upscope $end
$upscope $end
$upscope $end
$scope module cpu_tb $end
$scope module mycpu $end
$scope module group27RegisterFile $end
$var reg 8 & \register[5] [7:0] $end
$upscope $end
$upscope $end
$upscope $end
$scope module cpu_tb $end
$scope module mycpu $end
$scope module group27RegisterFile $end
$var reg 8 ' \register[6] [7:0] $end
$upscope $end
$upscope $end
$upscope $end
$scope module cpu_tb $end
$scope module mycpu $end
$scope module group27RegisterFile $end
$var reg 8 ( \register[7] [7:0] $end
$upscope $end
$upscope $end
$upscope $end
$scope module cpu_tb $end
$var wire 32 ) PC [31:0] $end
$var reg 1 * CLK $end
$var reg 32 + INSTRUCTION [31:0] $end
$var reg 1 , RESET $end
$scope module mycpu $end
$var wire 1 * CLK $end
$var wire 32 - INSTRUCTION [31:0] $end
$var wire 1 . IS_BEQ $end
$var wire 1 / IS_J_OR_BEQ $end
$var wire 1 , RESET $end
$var wire 1 0 ZERO $end
$var wire 3 1 WRITEREG [2:0] $end
$var wire 1 2 WRITEENABLE $end
$var wire 8 3 REGOUT2 [7:0] $end
$var wire 8 4 REGOUT1 [7:0] $end
$var wire 3 5 READREG2 [2:0] $end
$var wire 3 6 READREG1 [2:0] $end
$var wire 32 7 PCOUT_JBeq [31:0] $end
$var wire 32 8 PCOUT_EXECUTING [31:0] $end
$var wire 32 9 PCOUT [31:0] $end
$var wire 32 : PC [31:0] $end
$var wire 8 ; OPCODE [7:0] $end
$var wire 8 < OFFSET_8BIT [7:0] $end
$var wire 32 = OFFSET_32BIT_SHIFTED [31:0] $end
$var wire 32 > OFFSET_32BIT [31:0] $end
$var wire 1 ? MUXIMMSELECT $end
$var wire 8 @ MUXIMMOUT [7:0] $end
$var wire 1 A MUXCOMPSELECT $end
$var wire 8 B MUXCOMPOUT [7:0] $end
$var wire 1 C J_TRIGGER $end
$var wire 8 D IMMEDIATE [7:0] $end
$var wire 8 E COMPLIMENT [7:0] $end
$var wire 1 F BEQ_TRIGGER $end
$var wire 8 G ALURESULT [7:0] $end
$var wire 3 H ALUOP [2:0] $end
$scope module group27ALU $end
$var wire 3 I SELECT [2:0] $end
$var wire 8 J RESULT_FOR_OR [7:0] $end
$var wire 8 K RESULT_FOR_FORWARD [7:0] $end
$var wire 8 L RESULT_FOR_AND [7:0] $end
$var wire 8 M RESULT_FOR_ADD [7:0] $end
$var wire 8 N DATA2 [7:0] $end
$var wire 8 O DATA1 [7:0] $end
$var reg 8 P RESULT [7:0] $end
$var reg 1 0 ZERO $end
$scope module add_1 $end
$var wire 8 Q RESULT [7:0] $end
$var wire 8 R DATA2 [7:0] $end
$var wire 8 S DATA1 [7:0] $end
$upscope $end
$scope module and_1 $end
$var wire 8 T RESULT [7:0] $end
$var wire 8 U DATA2 [7:0] $end
$var wire 8 V DATA1 [7:0] $end
$upscope $end
$scope module forward_1 $end
$var wire 8 W RESULT [7:0] $end
$var wire 8 X DATA2 [7:0] $end
$upscope $end
$scope module or_1 $end
$var wire 8 Y RESULT [7:0] $end
$var wire 8 Z DATA2 [7:0] $end
$var wire 8 [ DATA1 [7:0] $end
$upscope $end
$upscope $end
$scope module group27ControlUnit $end
$var wire 8 \ OPCODE [7:0] $end
$var reg 3 ] ALUOP [2:0] $end
$var reg 1 F BEQ_TRIGGER $end
$var reg 1 C J_TRIGGER $end
$var reg 1 A MUXCOMP $end
$var reg 1 ? MUXIMM $end
$var reg 1 2 WRITEENABLE $end
$upscope $end
$scope module group27Decorder $end
$var wire 32 ^ INSTRUCTION [31:0] $end
$var reg 8 _ IMMEDIATE [7:0] $end
$var reg 8 ` OFFSET_8BIT [7:0] $end
$var reg 8 a OPCODE [7:0] $end
$var reg 3 b READREG1 [2:0] $end
$var reg 3 c READREG2 [2:0] $end
$var reg 3 d WRITEREG [2:0] $end
$upscope $end
$scope module group27MUXCompliment $end
$var wire 1 A SELECT $end
$var wire 8 e IN2 [7:0] $end
$var wire 8 f IN1 [7:0] $end
$var reg 8 g OUT [7:0] $end
$upscope $end
$scope module group27MUXImmediate $end
$var wire 8 h IN1 [7:0] $end
$var wire 8 i IN2 [7:0] $end
$var wire 1 ? SELECT $end
$var reg 8 j OUT [7:0] $end
$upscope $end
$scope module group27Mux2to1_32bit $end
$var wire 1 / SELECT $end
$var wire 32 k IN2 [31:0] $end
$var wire 32 l IN1 [31:0] $end
$var reg 32 m OUT [31:0] $end
$upscope $end
$scope module group27PCAdder $end
$var wire 32 n PC [31:0] $end
$var reg 32 o PCOUT [31:0] $end
$upscope $end
$scope module group27PCAdderJBeq $end
$var wire 32 p INSTRUCTION [31:0] $end
$var wire 32 q PC [31:0] $end
$var wire 32 r OFFSET [31:0] $end
$var reg 32 s PCOUT_JBeq [31:0] $end
$upscope $end
$scope module group27ProgramCounter $end
$var wire 1 * CLK $end
$var wire 32 t PCOUT_EXECUTING [31:0] $end
$var wire 1 , RESET $end
$var reg 32 u PC [31:0] $end
$upscope $end
$scope module group27RegisterFile $end
$var wire 1 * CLK $end
$var wire 8 v IN [7:0] $end
$var wire 3 w INADDRESS [2:0] $end
$var wire 8 x OUT1 [7:0] $end
$var wire 3 y OUT1ADDRESS [2:0] $end
$var wire 8 z OUT2 [7:0] $end
$var wire 3 { OUT2ADDRESS [2:0] $end
$var wire 1 , RESET $end
$var wire 1 2 WRITE $end
$var integer 32 | i [31:0] $end
$upscope $end
$scope module group27Shifter $end
$var wire 32 } OFFSET [31:0] $end
$var reg 32 ~ OFFSET_SHIFTED [31:0] $end
$upscope $end
$scope module group27SignExtend $end
$var wire 8 !" OFFSET_8BIT [7:0] $end
$var reg 32 "" OFFSET_32BIT [31:0] $end
$upscope $end
$scope module group27TwosCompliment $end
$var wire 8 #" IN [7:0] $end
$var reg 8 $" COMPLIMENT [7:0] $end
$var reg 8 %" TEMP [7:0] $end
$upscope $end
$upscope $end
$upscope $end
$enddefinitions $end
#0
$dumpvars
bx %"
bx $"
bx #"
bx ""
bx !"
bx ~
bx }
b1000 |
bx {
bx z
bx y
bx x
bx w
bx v
bx u
bx t
bx s
bx r
bx q
bx p
bx o
bx n
bx m
bx l
bx k
bx j
bx i
bx h
bx g
bx f
bx e
bx d
bx c
bx b
bx a
bx `
bx _
bx ^
bx ]
bx \
bx [
bx Z
bx Y
bx X
bx W
bx V
bx U
bx T
bx S
bx R
bx Q
bx P
bx O
bx N
bx M
bx L
bx K
bx J
bx I
bx H
bx G
xF
bx E
bx D
xC
bx B
xA
bx @
x?
bx >
bx =
bx <
bx ;
bx :
bx 9
bx 8
bx 7
bx 6
bx 5
bx 4
bx 3
x2
bx 1
x0
x/
x.
bx -
1,
bx +
0*
bx )
bx (
bx '
bx &
bx %
bx $
bx #
bx "
bx !
$end
#4
1*
#5
b0 (
b0 '
b0 &
b0 %
b0 $
b0 #
b0 "
b0 !
b1000 |
b0 )
b0 :
b0 n
b0 u
#6
b100 8
b100 m
b100 t
b100 9
b100 l
b100 o
b100 q
#7
b1 1
b1 d
b1 w
b0 6
b0 b
b0 y
b101 5
b101 c
b101 {
b101 D
b101 _
b101 i
b0 ;
b0 \
b0 a
b10000000000000101 +
b10000000000000101 -
b10000000000000101 ^
b10000000000000101 p
#8
0/
0.
b101 @
b101 N
b101 R
b101 U
b101 X
b101 Z
b101 j
0F
0C
12
1?
0A
b0 H
b0 I
b0 ]
0*
#9
b0 B
b0 g
b0 h
b0 %"
bx1x1 J
bx1x1 Y
b0x0x L
b0x0x T
b101 G
b101 P
b101 v
b101 K
b101 W
b0 4
b0 O
b0 S
b0 V
b0 [
b0 x
b0 3
b0 f
b0 z
b0 #"
#10
b101 J
b101 Y
b0 L
b0 T
b0 E
b0 e
b0 $"
0,
#11
00
b101 M
b101 Q
#12
1*
#13
b101 "
b100 )
b100 :
b100 n
b100 u
#14
b1000 8
b1000 m
b1000 t
b1000 9
b1000 l
b1000 o
b1000 q
#15
b1 @
b1 N
b1 R
b1 U
b1 X
b1 Z
b1 j
b10 1
b10 d
b10 w
b1 5
b1 c
b1 {
b1 D
b1 _
b1 i
b100000000000000001 +
b100000000000000001 -
b100000000000000001 ^
b100000000000000001 p
#16
b1 J
b1 Y
b1 G
b1 P
b1 v
b1 K
b1 W
0*
#17
b101 B
b101 g
b101 h
b11111011 %"
b1 M
b1 Q
b101 3
b101 f
b101 z
b101 #"
#18
b11111011 E
b11111011 e
b11111011 $"
#20
1*
#21
b1 #
b1000 )
b1000 :
b1000 n
b1000 u
#22
b1100 8
b1100 m
b1100 t
b1100 9
b1100 l
b1100 o
b1100 q
#23
b11 1
b11 d
b11 w
b110000000000000001 +
b110000000000000001 -
b110000000000000001 ^
b110000000000000001 p
#24
0*
#28
1*
#29
b1 $
b1100 )
b1100 :
b1100 n
b1100 u
#30
b10000 8
b10000 m
b10000 t
b10000 9
b10000 l
b10000 o
b10000 q
#31
b101 @
b101 N
b101 R
b101 U
b101 X
b101 Z
b101 j
b100 1
b100 d
b100 w
b101 5
b101 c
b101 {
b101 D
b101 _
b101 i
b1000000000000000101 +
b1000000000000000101 -
b1000000000000000101 ^
b1000000000000000101 p
#32
b101 J
b101 Y
b101 G
b101 P
b101 v
b101 K
b101 W
0*
#33
b0 B
b0 g
b0 h
b0 %"
b101 M
b101 Q
b0 3
b0 f
b0 z
b0 #"
#34
b0 E
b0 e
b0 $"
#36
1*
#37
b101 %
b10000 )
b10000 :
b10000 n
b10000 u
#38
b10100 8
b10100 m
b10100 t
b10100 9
b10100 l
b10100 o
b10100 q
#39
b10 @
b10 N
b10 R
b10 U
b10 X
b10 Z
b10 j
b1 1
b1 d
b1 w
b1 6
b1 b
b1 y
b10 5
b10 c
b10 {
b10 D
b10 _
b10 i
b11 ;
b11 \
b11 a
b11000000010000000100000010 +
b11000000010000000100000010 -
b11000000010000000100000010 ^
b11000000010000000100000010 p
#40
b0 @
b0 N
b0 R
b0 U
b0 X
b0 Z
b0 j
b10 J
b10 Y
b101 G
b101 P
b101 v
b10 K
b10 W
0?
1A
b1 H
b1 I
b1 ]
0*
#41
b11111111 %"
b0 J
b0 Y
b0 K
b0 W
b101 4
b101 O
b101 S
b101 V
b101 [
b101 x
b1 3
b1 f
b1 z
b1 #"
#42
b11111111 @
b11111111 N
b11111111 R
b11111111 U
b11111111 X
b11111111 Z
b11111111 j
b11111111 B
b11111111 g
b11111111 h
b101 J
b101 Y
b11111111 E
b11111111 e
b11111111 $"
#43
b11111111 J
b11111111 Y
b101 L
b101 T
b11111111 K
b11111111 W
#44
b100 G
b100 P
b100 v
b100 M
b100 Q
1*
#45
b100 "
b10100 )
b10100 :
b10100 n
b10100 u
#46
b11000 8
b11000 m
b11000 t
b11000 9
b11000 l
b11000 o
b11000 q
#47
b100 =
b100 r
b100 ~
b1 >
b1 }
b1 ""
b11 5
b11 c
b11 {
b1 <
b1 `
b1 !"
b111 ;
b111 \
b111 a
b100 4
b100 O
b100 S
b100 V
b100 [
b100 x
b111000000010000000100000011 +
b111000000010000000100000011 -
b111000000010000000100000011 ^
b111000000010000000100000011 p
#48
1F
02
b100 L
b100 T
0*
#49
b11100 7
b11100 k
b11100 s
b11 G
b11 P
b11 v
b11 M
b11 Q
#52
1*
#53
b11000 )
b11000 :
b11000 n
b11000 u
#54
b11100 8
b11100 m
b11100 t
b11100 9
b11100 l
b11100 o
b11100 q
#55
b11111111111111111111111111110100 =
b11111111111111111111111111110100 r
b11111111111111111111111111110100 ~
b11111111111111111111111111111101 >
b11111111111111111111111111111101 }
b11111111111111111111111111111101 ""
b11111101 <
b11111101 `
b11111101 !"
b110 ;
b110 \
b110 a
b110111111010000000000000000 +
b110111111010000000000000000 -
b110111111010000000000000000 ^
b110111111010000000000000000 p
#56
b1 @
b1 N
b1 R
b1 U
b1 X
b1 Z
b1 j
1/
b1 B
b1 g
b1 h
0F
1C
0A
0*
#57
b10000 8
b10000 m
b10000 t
b101 J
b101 Y
b0 L
b0 T
b1 K
b1 W
b10000 7
b10000 k
b10000 s
#58
b101 G
b101 P
b101 v
b101 M
b101 Q
#60
1*
#61
b10000 )
b10000 :
b10000 n
b10000 u
#62
b10100 9
b10100 l
b10100 o
b10100 q
#63
b10 5
b10 c
b10 {
b11 ;
b11 \
b11 a
b11000000010000000100000010 +
b11000000010000000100000010 -
b11000000010000000100000010 ^
b11000000010000000100000010 p
#64
b10100 8
b10100 m
b10100 t
b11111111 @
b11111111 N
b11111111 R
b11111111 U
b11111111 X
b11111111 Z
b11111111 j
0/
b11111111 B
b11111111 g
b11111111 h
0C
12
1A
0*
#65
b11111111 J
b11111111 Y
b100 L
b100 T
b11111111 K
b11111111 W
b1000 7
b1000 k
b1000 s
#66
b11 G
b11 P
b11 v
b11 M
b11 Q
#68
1*
#69
b11 "
b10100 )
b10100 :
b10100 n
b10100 u
#70
b11000 8
b11000 m
b11000 t
b11000 9
b11000 l
b11000 o
b11000 q
#71
b100 =
b100 r
b100 ~
b1 >
b1 }
b1 ""
b11 5
b11 c
b11 {
b1 <
b1 `
b1 !"
b111 ;
b111 \
b111 a
b11 4
b11 O
b11 S
b11 V
b11 [
b11 x
b111000000010000000100000011 +
b111000000010000000100000011 -
b111000000010000000100000011 ^
b111000000010000000100000011 p
#72
1F
02
b11 L
b11 T
0*
#73
b11100 7
b11100 k
b11100 s
b10 G
b10 P
b10 v
b10 M
b10 Q
#76
1*
#77
b11000 )
b11000 :
b11000 n
b11000 u
#78
b11100 8
b11100 m
b11100 t
b11100 9
b11100 l
b11100 o
b11100 q
#79
b11111111111111111111111111110100 =
b11111111111111111111111111110100 r
b11111111111111111111111111110100 ~
b11111111111111111111111111111101 >
b11111111111111111111111111111101 }
b11111111111111111111111111111101 ""
b11111101 <
b11111101 `
b11111101 !"
b110 ;
b110 \
b110 a
b110111111010000000000000000 +
b110111111010000000000000000 -
b110111111010000000000000000 ^
b110111111010000000000000000 p
#80
b1 @
b1 N
b1 R
b1 U
b1 X
b1 Z
b1 j
1/
b1 B
b1 g
b1 h
0F
1C
0A
0*
#81
b10000 8
b10000 m
b10000 t
b11 J
b11 Y
b1 L
b1 T
b1 K
b1 W
b10000 7
b10000 k
b10000 s
#82
b100 G
b100 P
b100 v
b100 M
b100 Q
#84
1*
#85
b10000 )
b10000 :
b10000 n
b10000 u
#86
b10100 9
b10100 l
b10100 o
b10100 q
#87
b10 5
b10 c
b10 {
b11 ;
b11 \
b11 a
b11000000010000000100000010 +
b11000000010000000100000010 -
b11000000010000000100000010 ^
b11000000010000000100000010 p
#88
b10100 8
b10100 m
b10100 t
b11111111 @
b11111111 N
b11111111 R
b11111111 U
b11111111 X
b11111111 Z
b11111111 j
0/
b11111111 B
b11111111 g
b11111111 h
0C
12
1A
0*
#89
b11111111 J
b11111111 Y
b11 L
b11 T
b11111111 K
b11111111 W
b1000 7
b1000 k
b1000 s
#90
b10 G
b10 P
b10 v
b10 M
b10 Q
#92
1*
#93
b10 "
b10100 )
b10100 :
b10100 n
b10100 u
#94
b11000 8
b11000 m
b11000 t
b11000 9
b11000 l
b11000 o
b11000 q
#95
b100 =
b100 r
b100 ~
b1 >
b1 }
b1 ""
b11 5
b11 c
b11 {
b1 <
b1 `
b1 !"
b111 ;
b111 \
b111 a
b10 4
b10 O
b10 S
b10 V
b10 [
b10 x
b111000000010000000100000011 +
b111000000010000000100000011 -
b111000000010000000100000011 ^
b111000000010000000100000011 p
#96
1F
02
b10 L
b10 T
0*
#97
b11100 7
b11100 k
b11100 s
b1 G
b1 P
b1 v
b1 M
b1 Q
#100
1*
#101
b11000 )
b11000 :
b11000 n
b11000 u
#102
b11100 8
b11100 m
b11100 t
b11100 9
b11100 l
b11100 o
b11100 q
#103
b11111111111111111111111111110100 =
b11111111111111111111111111110100 r
b11111111111111111111111111110100 ~
b11111111111111111111111111111101 >
b11111111111111111111111111111101 }
b11111111111111111111111111111101 ""
b11111101 <
b11111101 `
b11111101 !"
b110 ;
b110 \
b110 a
b110111111010000000000000000 +
b110111111010000000000000000 -
b110111111010000000000000000 ^
b110111111010000000000000000 p
#104
b1 @
b1 N
b1 R
b1 U
b1 X
b1 Z
b1 j
1/
b1 B
b1 g
b1 h
0F
1C
0A
0*
#105
b10000 8
b10000 m
b10000 t
b11 J
b11 Y
b0 L
b0 T
b1 K
b1 W
b10000 7
b10000 k
b10000 s
#106
b11 G
b11 P
b11 v
b11 M
b11 Q
#108
1*
#109
b10000 )
b10000 :
b10000 n
b10000 u
#110
b10100 9
b10100 l
b10100 o
b10100 q
#111
b10 5
b10 c
b10 {
b11 ;
b11 \
b11 a
b11000000010000000100000010 +
b11000000010000000100000010 -
b11000000010000000100000010 ^
b11000000010000000100000010 p
#112
b10100 8
b10100 m
b10100 t
b11111111 @
b11111111 N
b11111111 R
b11111111 U
b11111111 X
b11111111 Z
b11111111 j
0/
b11111111 B
b11111111 g
b11111111 h
0C
12
1A
0*
#113
b11111111 J
b11111111 Y
b10 L
b10 T
b11111111 K
b11111111 W
b1000 7
b1000 k
b1000 s
#114
b1 G
b1 P
b1 v
b1 M
b1 Q
#116
1*
#117
b1 "
b10100 )
b10100 :
b10100 n
b10100 u
#118
b11000 8
b11000 m
b11000 t
b11000 9
b11000 l
b11000 o
b11000 q
#119
b100 =
b100 r
b100 ~
b1 >
b1 }
b1 ""
b11 5
b11 c
b11 {
b1 <
b1 `
b1 !"
b111 ;
b111 \
b111 a
b1 4
b1 O
b1 S
b1 V
b1 [
b1 x
b111000000010000000100000011 +
b111000000010000000100000011 -
b111000000010000000100000011 ^
b111000000010000000100000011 p
#120
1F
02
b1 L
b1 T
0*
#121
b11100 8
b11100 m
b11100 t
1/
1.
10
b11100 7
b11100 k
b11100 s
b0 G
b0 P
b0 v
b0 M
b0 Q
#124
1*
#125
b11100 )
b11100 :
b11100 n
b11100 u
#126
b100000 9
b100000 l
b100000 o
b100000 q
#127
b0 1
b0 d
b0 w
b100 5
b100 c
b100 {
b100 D
b100 _
b100 i
b10 ;
b10 \
b10 a
b10000000000000000100000100 +
b10000000000000000100000100 -
b10000000000000000100000100 ^
b10000000000000000100000100 p
#128
b100000 8
b100000 m
b100000 t
0/
b1 @
b1 N
b1 R
b1 U
b1 X
b1 Z
b1 j
0.
b1 B
b1 g
b1 h
0F
12
0A
0*
#129
b101 @
b101 N
b101 R
b101 U
b101 X
b101 Z
b101 j
b101 B
b101 g
b101 h
b11111011 %"
b1 J
b1 Y
b1 K
b1 W
b101 3
b101 f
b101 z
b101 #"
b100100 7
b100100 k
b100100 s
#130
b101 J
b101 Y
b101 K
b101 W
b11111011 E
b11111011 e
b11111011 $"
#131
00
b110 G
b110 P
b110 v
b110 M
b110 Q
#132
1*
#133
b110 !
b100000 )
b100000 :
b100000 n
b100000 u
#134
b100100 8
b100100 m
b100100 t
b100100 9
b100100 l
b100100 o
b100100 q
#135
bx 1
bx d
bx w
bx 6
bx b
bx y
bx 5
bx c
bx {
bx D
bx _
bx i
bx ;
bx \
bx a
bx +
bx -
bx ^
bx p
#136
0*
#137
bx @
bx N
bx R
bx U
bx X
bx Z
bx j
bx B
bx g
bx h
bx %"
bx 4
bx O
bx S
bx V
bx [
bx x
bx 3
bx f
bx z
bx #"
b101000 7
b101000 k
b101000 s
#138
bx K
bx W
bx J
bx Y
bx L
bx T
bx E
bx e
bx $"
#139
bx G
bx P
bx v
bx M
bx Q
#140
1*
#141
b100100 )
b100100 :
b100100 n
b100100 u
#142
b101000 8
b101000 m
b101000 t
b101000 9
b101000 l
b101000 o
b101000 q
#144
0*
#148
1*
#149
b101000 )
b101000 :
b101000 n
b101000 u
#150
b101100 8
b101100 m
b101100 t
b101100 9
b101100 l
b101100 o
b101100 q
#152
0*
#156
1*
#157
b101100 )
b101100 :
b101100 n
b101100 u
#158
b110000 8
b110000 m
b110000 t
b110000 9
b110000 l
b110000 o
b110000 q
#160
0*
#164
1*
#165
b110000 )
b110000 :
b110000 n
b110000 u
#166
b110100 8
b110100 m
b110100 t
b110100 9
b110100 l
b110100 o
b110100 q
#168
0*
#172
1*
#173
b110100 )
b110100 :
b110100 n
b110100 u
#174
b111000 8
b111000 m
b111000 t
b111000 9
b111000 l
b111000 o
b111000 q
#176
0*
#180
1*
#181
b111000 )
b111000 :
b111000 n
b111000 u
#182
b111100 8
b111100 m
b111100 t
b111100 9
b111100 l
b111100 o
b111100 q
#184
0*
#188
1*
#189
b111100 )
b111100 :
b111100 n
b111100 u
#190
b1000000 8
b1000000 m
b1000000 t
b1000000 9
b1000000 l
b1000000 o
b1000000 q
#192
0*
#196
1*
#197
b1000000 )
b1000000 :
b1000000 n
b1000000 u
#198
b1000100 8
b1000100 m
b1000100 t
b1000100 9
b1000100 l
b1000100 o
b1000100 q
#200
0*
#204
1*
#205
b1000100 )
b1000100 :
b1000100 n
b1000100 u
#206
b1001000 8
b1001000 m
b1001000 t
b1001000 9
b1001000 l
b1001000 o
b1001000 q
#208
0*
#212
1*
#213
b1001000 )
b1001000 :
b1001000 n
b1001000 u
#214
b1001100 8
b1001100 m
b1001100 t
b1001100 9
b1001100 l
b1001100 o
b1001100 q
#216
0*
#220
1*
#221
b1001100 )
b1001100 :
b1001100 n
b1001100 u
#222
b1010000 8
b1010000 m
b1010000 t
b1010000 9
b1010000 l
b1010000 o
b1010000 q
#224
0*
#228
1*
#229
b1010000 )
b1010000 :
b1010000 n
b1010000 u
#230
b1010100 8
b1010100 m
b1010100 t
b1010100 9
b1010100 l
b1010100 o
b1010100 q
#232
0*
#236
1*
#237
b1010100 )
b1010100 :
b1010100 n
b1010100 u
#238
b1011000 8
b1011000 m
b1011000 t
b1011000 9
b1011000 l
b1011000 o
b1011000 q
#240
0*
#244
1*
#245
b1011000 )
b1011000 :
b1011000 n
b1011000 u
#246
b1011100 8
b1011100 m
b1011100 t
b1011100 9
b1011100 l
b1011100 o
b1011100 q
#248
0*
#252
1*
#253
b1011100 )
b1011100 :
b1011100 n
b1011100 u
#254
b1100000 8
b1100000 m
b1100000 t
b1100000 9
b1100000 l
b1100000 o
b1100000 q
#256
0*
#260
1*
#261
b1100000 )
b1100000 :
b1100000 n
b1100000 u
#262
b1100100 8
b1100100 m
b1100100 t
b1100100 9
b1100100 l
b1100100 o
b1100100 q
#264
0*
#268
1*
#269
b1100100 )
b1100100 :
b1100100 n
b1100100 u
#270
b1101000 8
b1101000 m
b1101000 t
b1101000 9
b1101000 l
b1101000 o
b1101000 q
#272
0*
#276
1*
#277
b1101000 )
b1101000 :
b1101000 n
b1101000 u
#278
b1101100 8
b1101100 m
b1101100 t
b1101100 9
b1101100 l
b1101100 o
b1101100 q
#280
0*
#284
1*
#285
b1101100 )
b1101100 :
b1101100 n
b1101100 u
#286
b1110000 8
b1110000 m
b1110000 t
b1110000 9
b1110000 l
b1110000 o
b1110000 q
#288
0*
#292
1*
#293
b1110000 )
b1110000 :
b1110000 n
b1110000 u
#294
b1110100 8
b1110100 m
b1110100 t
b1110100 9
b1110100 l
b1110100 o
b1110100 q
#296
0*
#300
1*
#301
b1110100 )
b1110100 :
b1110100 n
b1110100 u
#302
b1111000 8
b1111000 m
b1111000 t
b1111000 9
b1111000 l
b1111000 o
b1111000 q
#304
0*
#308
1*
#309
b1111000 )
b1111000 :
b1111000 n
b1111000 u
#310
b1111100 8
b1111100 m
b1111100 t
b1111100 9
b1111100 l
b1111100 o
b1111100 q
#312
0*
#316
1*
#317
b1111100 )
b1111100 :
b1111100 n
b1111100 u
#318
b10000000 8
b10000000 m
b10000000 t
b10000000 9
b10000000 l
b10000000 o
b10000000 q
#320
0*
#324
1*
#325
b10000000 )
b10000000 :
b10000000 n
b10000000 u
#326
b10000100 8
b10000100 m
b10000100 t
b10000100 9
b10000100 l
b10000100 o
b10000100 q
#328
0*
#332
1*
#333
b10000100 )
b10000100 :
b10000100 n
b10000100 u
#334
b10001000 8
b10001000 m
b10001000 t
b10001000 9
b10001000 l
b10001000 o
b10001000 q
#336
0*
#340
1*
#341
b10001000 )
b10001000 :
b10001000 n
b10001000 u
#342
b10001100 8
b10001100 m
b10001100 t
b10001100 9
b10001100 l
b10001100 o
b10001100 q
#344
0*
#348
1*
#349
b10001100 )
b10001100 :
b10001100 n
b10001100 u
#350
b10010000 8
b10010000 m
b10010000 t
b10010000 9
b10010000 l
b10010000 o
b10010000 q
#352
0*
#356
1*
#357
b10010000 )
b10010000 :
b10010000 n
b10010000 u
#358
b10010100 8
b10010100 m
b10010100 t
b10010100 9
b10010100 l
b10010100 o
b10010100 q
#360
0*
#364
1*
#365
b10010100 )
b10010100 :
b10010100 n
b10010100 u
#366
b10011000 8
b10011000 m
b10011000 t
b10011000 9
b10011000 l
b10011000 o
b10011000 q
#368
0*
#372
1*
#373
b10011000 )
b10011000 :
b10011000 n
b10011000 u
#374
b10011100 8
b10011100 m
b10011100 t
b10011100 9
b10011100 l
b10011100 o
b10011100 q
#376
0*
#380
1*
#381
b10011100 )
b10011100 :
b10011100 n
b10011100 u
#382
b10100000 8
b10100000 m
b10100000 t
b10100000 9
b10100000 l
b10100000 o
b10100000 q
#384
0*
#388
1*
#389
b10100000 )
b10100000 :
b10100000 n
b10100000 u
#390
b10100100 8
b10100100 m
b10100100 t
b10100100 9
b10100100 l
b10100100 o
b10100100 q
#392
0*
#396
1*
#397
b10100100 )
b10100100 :
b10100100 n
b10100100 u
#398
b10101000 8
b10101000 m
b10101000 t
b10101000 9
b10101000 l
b10101000 o
b10101000 q
#400
0*
#404
1*
#405
b10101000 )
b10101000 :
b10101000 n
b10101000 u
#406
b10101100 8
b10101100 m
b10101100 t
b10101100 9
b10101100 l
b10101100 o
b10101100 q
#408
0*
#412
1*
#413
b10101100 )
b10101100 :
b10101100 n
b10101100 u
#414
b10110000 8
b10110000 m
b10110000 t
b10110000 9
b10110000 l
b10110000 o
b10110000 q
#416
0*
#420
1*
#421
b10110000 )
b10110000 :
b10110000 n
b10110000 u
#422
b10110100 8
b10110100 m
b10110100 t
b10110100 9
b10110100 l
b10110100 o
b10110100 q
#424
0*
#428
1*
#429
b10110100 )
b10110100 :
b10110100 n
b10110100 u
#430
b10111000 8
b10111000 m
b10111000 t
b10111000 9
b10111000 l
b10111000 o
b10111000 q
#432
0*
#436
1*
#437
b10111000 )
b10111000 :
b10111000 n
b10111000 u
#438
b10111100 8
b10111100 m
b10111100 t
b10111100 9
b10111100 l
b10111100 o
b10111100 q
#440
0*
#444
1*
#445
b10111100 )
b10111100 :
b10111100 n
b10111100 u
#446
b11000000 8
b11000000 m
b11000000 t
b11000000 9
b11000000 l
b11000000 o
b11000000 q
#448
0*
#452
1*
#453
b11000000 )
b11000000 :
b11000000 n
b11000000 u
#454
b11000100 8
b11000100 m
b11000100 t
b11000100 9
b11000100 l
b11000100 o
b11000100 q
#456
0*
#460
1*
#461
b11000100 )
b11000100 :
b11000100 n
b11000100 u
#462
b11001000 8
b11001000 m
b11001000 t
b11001000 9
b11001000 l
b11001000 o
b11001000 q
#464
0*
#468
1*
#469
b11001000 )
b11001000 :
b11001000 n
b11001000 u
#470
b11001100 8
b11001100 m
b11001100 t
b11001100 9
b11001100 l
b11001100 o
b11001100 q
#472
0*
#476
1*
#477
b11001100 )
b11001100 :
b11001100 n
b11001100 u
#478
b11010000 8
b11010000 m
b11010000 t
b11010000 9
b11010000 l
b11010000 o
b11010000 q
#480
0*
#484
1*
#485
b11010000 )
b11010000 :
b11010000 n
b11010000 u
#486
b11010100 8
b11010100 m
b11010100 t
b11010100 9
b11010100 l
b11010100 o
b11010100 q
#488
0*
#492
1*
#493
b11010100 )
b11010100 :
b11010100 n
b11010100 u
#494
b11011000 8
b11011000 m
b11011000 t
b11011000 9
b11011000 l
b11011000 o
b11011000 q
#496
0*
#500
1*
#501
b11011000 )
b11011000 :
b11011000 n
b11011000 u
#502
b11011100 8
b11011100 m
b11011100 t
b11011100 9
b11011100 l
b11011100 o
b11011100 q
#504
0*
#508
1*
#509
b11011100 )
b11011100 :
b11011100 n
b11011100 u
#510
b11100000 8
b11100000 m
b11100000 t
b11100000 9
b11100000 l
b11100000 o
b11100000 q
