Part 5 - Extended ISA/cpu_wavedata_group27.vcd
$date
	Tue Feb 22 19:17:51 2022
$end
$version
	Icarus Verilog
$end
$timescale
	1s
$end
$scope module cpu_tb $end
$scope module mycpu $end
$scope module group27RegisterFile $end
$var reg 8 ! \register[0] [7:0] $end
$upscope $end
$upscope $end
$upscope $end
$scope module cpu_tb $end
$scope module mycpu $end
$scope module group27RegisterFile $end
$var reg 8 " \register[1] [7:0] $end
$upscope $end
$upscope $end
$upscope $end
$scope module cpu_tb $end
$scope module mycpu $end
$scope module group27RegisterFile $end
$var reg 8 # \register[2] [7:0] $end
$upscope $end
$upscope $end
$upscope $end
$scope module cpu_tb $end
$scope module mycpu $end
$scope module group27RegisterFile $end
$var reg 8 $ \register[3] [7:0] $end
$upscope $end
$upscope $end
$upscope $end
$scope module cpu_tb $end
$scope module mycpu $end
$scope module group27RegisterFile $end
$var reg 8 % \register[4] [7:0] $end
$upscope $end
$upscope $end
$upscope $end
$scope module cpu_tb $end
$scope module mycpu $end
$scope module group27RegisterFile $end
$var reg 8 & \register[5] [7:0] $end
$upscope $end
$upscope $end
$upscope $end
$scope module cpu_tb $end
$scope module mycpu $end
$scope module group27RegisterFile $end
$var reg 8 ' \register[6] [7:0] $end
$upscope $end
$upscope $end
$upscope $end
$scope module cpu_tb $end
$scope module mycpu $end
$scope module group27RegisterFile $end
$var reg 8 ( \register[7] [7:0] $end
$upscope $end
$upscope $end
$upscope $end
$scope module cpu_tb $end
$var wire 32 ) PC [31:0] $end
$var reg 1 * CLK $end
$var reg 32 + INSTRUCTION [31:0] $end
$var reg 1 , RESET $end
$scope module mycpu $end
$var wire 1 * CLK $end
$var wire 32 - INSTRUCTION [31:0] $end
$var wire 1 . IS_BEQ $end
$var wire 1 / IS_BNE $end
$var wire 1 0 IS_J_OR_BEQ $end
$var wire 1 , RESET $end
$var wire 1 1 ZERO $end
$var wire 3 2 WRITEREG [2:0] $end
$var wire 1 3 WRITEENABLE $end
$var wire 8 4 REGOUT2 [7:0] $end
$var wire 8 5 REGOUT1 [7:0] $end
$var wire 3 6 READREG2 [2:0] $end
$var wire 3 7 READREG1 [2:0] $end
$var wire 32 8 PCOUT_JBeq [31:0] $end
$var wire 32 9 PCOUT_EXECUTING [31:0] $end
$var wire 32 : PCOUT [31:0] $end
$var wire 32 ; PC [31:0] $end
$var wire 8 < OPCODE [7:0] $end
$var wire 8 = OFFSET_8BIT [7:0] $end
$var wire 32 > OFFSET_32BIT_SHIFTED [31:0] $end
$var wire 32 ? OFFSET_32BIT [31:0] $end
$var wire 1 @ MUXIMMSELECT $end
$var wire 8 A MUXIMMOUT [7:0] $end
$var wire 1 B MUXCOMPSELECT $end
$var wire 8 C MUXCOMPOUT [7:0] $end
$var wire 1 D J_TRIGGER $end
$var wire 8 E IMMEDIATE [7:0] $end
$var wire 8 F COMPLIMENT [7:0] $end
$var wire 1 G BNE_TRIGGER $end
$var wire 1 H BEQ_TRIGGER $end
$var wire 8 I ALURESULT [7:0] $end
$var wire 3 J ALUOP [2:0] $end
$scope module group27ALU $end
$var wire 3 K SELECT [2:0] $end
$var wire 8 L RESULT_FOR_SHIFTRIGHT [7:0] $end
$var wire 8 M RESULT_FOR_SHIFTLEFT [7:0] $end
$var wire 8 N RESULT_FOR_ROTATERIGHT [7:0] $end
$var wire 8 O RESULT_FOR_OR [7:0] $end
$var wire 8 P RESULT_FOR_MULT [7:0] $end
$var wire 8 Q RESULT_FOR_FORWARD [7:0] $end
$var wire 8 R RESULT_FOR_AND [7:0] $end
$var wire 8 S RESULT_FOR_ADD [7:0] $end
$var wire 8 T DATA2 [7:0] $end
$var wire 8 U DATA1 [7:0] $end
$var reg 8 V RESULT [7:0] $end
$var reg 1 1 ZERO $end
$scope module add_1 $end
$var wire 8 W RESULT [7:0] $end
$var wire 8 X DATA2 [7:0] $end
$var wire 8 Y DATA1 [7:0] $end
$upscope $end
$scope module and_1 $end
$var wire 8 Z RESULT [7:0] $end
$var wire 8 [ DATA2 [7:0] $end
$var wire 8 \ DATA1 [7:0] $end
$upscope $end
$scope module forward_1 $end
$var wire 8 ] RESULT [7:0] $end
$var wire 8 ^ DATA2 [7:0] $end
$upscope $end
$scope module mult_1 $end
$var wire 8 _ RESULT [7:0] $end
$var wire 8 ` DATA2 [7:0] $end
$var wire 8 a DATA1 [7:0] $end
$upscope $end
$scope module or_1 $end
$var wire 8 b RESULT [7:0] $end
$var wire 8 c DATA2 [7:0] $end
$var wire 8 d DATA1 [7:0] $end
$upscope $end
$scope module rotateRight_1 $end
$var wire 8 e y [7:0] $end
$var wire 8 f x [7:0] $end
$var wire 8 g out [7:0] $end
$var wire 3 h TEMP [2:0] $end
$var wire 8 i DATA2 [7:0] $end
$var wire 8 j DATA1 [7:0] $end
$var reg 8 k RESULT [7:0] $end
$scope module mux_10 $end
$var wire 1 l in0 $end
$var wire 1 m in1 $end
$var wire 1 n sel $end
$var wire 1 o out $end
$upscope $end
$scope module mux_11 $end
$var wire 1 p in0 $end
$var wire 1 q in1 $end
$var wire 1 r sel $end
$var wire 1 s out $end
$upscope $end
$scope module mux_12 $end
$var wire 1 t in0 $end
$var wire 1 u in1 $end
$var wire 1 v sel $end
$var wire 1 w out $end
$upscope $end
$scope module mux_13 $end
$var wire 1 x in0 $end
$var wire 1 y in1 $end
$var wire 1 z sel $end
$var wire 1 { out $end
$upscope $end
$scope module mux_14 $end
$var wire 1 | in0 $end
$var wire 1 } in1 $end
$var wire 1 ~ sel $end
$var wire 1 !" out $end
$upscope $end
$scope module mux_15 $end
$var wire 1 "" in0 $end
$var wire 1 #" in1 $end
$var wire 1 $" sel $end
$var wire 1 %" out $end
$upscope $end
$scope module mux_16 $end
$var wire 1 &" in0 $end
$var wire 1 '" in1 $end
$var wire 1 (" sel $end
$var wire 1 )" out $end
$upscope $end
$scope module mux_17 $end
$var wire 1 *" in0 $end
$var wire 1 +" in1 $end
$var wire 1 ," sel $end
$var wire 1 -" out $end
$upscope $end
$scope module mux_20 $end
$var wire 1 ." in0 $end
$var wire 1 /" in1 $end
$var wire 1 0" sel $end
$var wire 1 1" out $end
$upscope $end
$scope module mux_21 $end
$var wire 1 2" in0 $end
$var wire 1 3" in1 $end
$var wire 1 4" sel $end
$var wire 1 5" out $end
$upscope $end
$scope module mux_22 $end
$var wire 1 6" in0 $end
$var wire 1 7" in1 $end
$var wire 1 8" sel $end
$var wire 1 9" out $end
$upscope $end
$scope module mux_23 $end
$var wire 1 :" in0 $end
$var wire 1 ;" in1 $end
$var wire 1 <" sel $end
$var wire 1 =" out $end
$upscope $end
$scope module mux_24 $end
$var wire 1 >" in0 $end
$var wire 1 ?" in1 $end
$var wire 1 @" sel $end
$var wire 1 A" out $end
$upscope $end
$scope module mux_25 $end
$var wire 1 B" in0 $end
$var wire 1 C" in1 $end
$var wire 1 D" sel $end
$var wire 1 E" out $end
$upscope $end
$scope module mux_26 $end
$var wire 1 F" in0 $end
$var wire 1 G" in1 $end
$var wire 1 H" sel $end
$var wire 1 I" out $end
$upscope $end
$scope module mux_27 $end
$var wire 1 J" in0 $end
$var wire 1 K" in1 $end
$var wire 1 L" sel $end
$var wire 1 M" out $end
$upscope $end
$scope module mux_30 $end
$var wire 1 N" in0 $end
$var wire 1 O" in1 $end
$var wire 1 P" sel $end
$var wire 1 Q" out $end
$upscope $end
$scope module mux_31 $end
$var wire 1 R" in0 $end
$var wire 1 S" in1 $end
$var wire 1 T" sel $end
$var wire 1 U" out $end
$upscope $end
$scope module mux_32 $end
$var wire 1 V" in0 $end
$var wire 1 W" in1 $end
$var wire 1 X" sel $end
$var wire 1 Y" out $end
$upscope $end
$scope module mux_33 $end
$var wire 1 Z" in0 $end
$var wire 1 [" in1 $end
$var wire 1 \" sel $end
$var wire 1 ]" out $end
$upscope $end
$scope module mux_34 $end
$var wire 1 ^" in0 $end
$var wire 1 _" in1 $end
$var wire 1 `" sel $end
$var wire 1 a" out $end
$upscope $end
$scope module mux_35 $end
$var wire 1 b" in0 $end
$var wire 1 c" in1 $end
$var wire 1 d" sel $end
$var wire 1 e" out $end
$upscope $end
$scope module mux_36 $end
$var wire 1 f" in0 $end
$var wire 1 g" in1 $end
$var wire 1 h" sel $end
$var wire 1 i" out $end
$upscope $end
$scope module mux_37 $end
$var wire 1 j" in0 $end
$var wire 1 k" in1 $end
$var wire 1 l" sel $end
$var wire 1 m" out $end
$upscope $end
$upscope $end
$scope module shiftLeft_1 $end
$var wire 8 n" y [7:0] $end
$var wire 8 o" x [7:0] $end
$var wire 8 p" out [7:0] $end
$var wire 3 q" TEMP [2:0] $end
$var wire 8 r" DATA2 [7:0] $end
$var wire 8 s" DATA1 [7:0] $end
$var reg 8 t" RESULT [7:0] $end
$scope module mux_10 $end
$var wire 1 u" in0 $end
$var wire 1 v" in1 $end
$var wire 1 w" sel $end
$var wire 1 x" out $end
$upscope $end
$scope module mux_11 $end
$var wire 1 y" in0 $end
$var wire 1 z" in1 $end
$var wire 1 {" sel $end
$var wire 1 |" out $end
$upscope $end
$scope module mux_12 $end
$var wire 1 }" in0 $end
$var wire 1 ~" in1 $end
$var wire 1 !# sel $end
$var wire 1 "# out $end
$upscope $end
$scope module mux_13 $end
$var wire 1 ## in0 $end
$var wire 1 $# in1 $end
$var wire 1 %# sel $end
$var wire 1 &# out $end
$upscope $end
$scope module mux_14 $end
$var wire 1 '# in0 $end
$var wire 1 (# in1 $end
$var wire 1 )# sel $end
$var wire 1 *# out $end
$upscope $end
$scope module mux_15 $end
$var wire 1 +# in0 $end
$var wire 1 ,# in1 $end
$var wire 1 -# sel $end
$var wire 1 .# out $end
$upscope $end
$scope module mux_16 $end
$var wire 1 /# in0 $end
$var wire 1 0# in1 $end
$var wire 1 1# sel $end
$var wire 1 2# out $end
$upscope $end
$scope module mux_17 $end
$var wire 1 3# in0 $end
$var wire 1 4# in1 $end
$var wire 1 5# sel $end
$var wire 1 6# out $end
$upscope $end
$scope module mux_20 $end
$var wire 1 7# in0 $end
$var wire 1 8# in1 $end
$var wire 1 9# sel $end
$var wire 1 :# out $end
$upscope $end
$scope module mux_21 $end
$var wire 1 ;# in0 $end
$var wire 1 <# in1 $end
$var wire 1 =# sel $end
$var wire 1 ># out $end
$upscope $end
$scope module mux_22 $end
$var wire 1 ?# in0 $end
$var wire 1 @# in1 $end
$var wire 1 A# sel $end
$var wire 1 B# out $end
$upscope $end
$scope module mux_23 $end
$var wire 1 C# in0 $end
$var wire 1 D# in1 $end
$var wire 1 E# sel $end
$var wire 1 F# out $end
$upscope $end
$scope module mux_24 $end
$var wire 1 G# in0 $end
$var wire 1 H# in1 $end
$var wire 1 I# sel $end
$var wire 1 J# out $end
$upscope $end
$scope module mux_25 $end
$var wire 1 K# in0 $end
$var wire 1 L# in1 $end
$var wire 1 M# sel $end
$var wire 1 N# out $end
$upscope $end
$scope module mux_26 $end
$var wire 1 O# in0 $end
$var wire 1 P# in1 $end
$var wire 1 Q# sel $end
$var wire 1 R# out $end
$upscope $end
$scope module mux_27 $end
$var wire 1 S# in0 $end
$var wire 1 T# in1 $end
$var wire 1 U# sel $end
$var wire 1 V# out $end
$upscope $end
$scope module mux_30 $end
$var wire 1 W# in0 $end
$var wire 1 X# in1 $end
$var wire 1 Y# sel $end
$var wire 1 Z# out $end
$upscope $end
$scope module mux_31 $end
$var wire 1 [# in0 $end
$var wire 1 \# in1 $end
$var wire 1 ]# sel $end
$var wire 1 ^# out $end
$upscope $end
$scope module mux_32 $end
$var wire 1 _# in0 $end
$var wire 1 `# in1 $end
$var wire 1 a# sel $end
$var wire 1 b# out $end
$upscope $end
$scope module mux_33 $end
$var wire 1 c# in0 $end
$var wire 1 d# in1 $end
$var wire 1 e# sel $end
$var wire 1 f# out $end
$upscope $end
$scope module mux_34 $end
$var wire 1 g# in0 $end
$var wire 1 h# in1 $end
$var wire 1 i# sel $end
$var wire 1 j# out $end
$upscope $end
$scope module mux_35 $end
$var wire 1 k# in0 $end
$var wire 1 l# in1 $end
$var wire 1 m# sel $end
$var wire 1 n# out $end
$upscope $end
$scope module mux_36 $end
$var wire 1 o# in0 $end
$var wire 1 p# in1 $end
$var wire 1 q# sel $end
$var wire 1 r# out $end
$upscope $end
$scope module mux_37 $end
$var wire 1 s# in0 $end
$var wire 1 t# in1 $end
$var wire 1 u# sel $end
$var wire 1 v# out $end
$upscope $end
$upscope $end
$scope module shiftRight_1 $end
$var wire 8 w# y [7:0] $end
$var wire 8 x# x [7:0] $end
$var wire 8 y# out [7:0] $end
$var wire 3 z# TEMP [2:0] $end
$var wire 8 {# DATA2 [7:0] $end
$var wire 8 |# DATA1 [7:0] $end
$var reg 8 }# RESULT [7:0] $end
$scope module mux_10 $end
$var wire 1 ~# in0 $end
$var wire 1 !$ in1 $end
$var wire 1 "$ sel $end
$var wire 1 #$ out $end
$upscope $end
$scope module mux_11 $end
$var wire 1 $$ in0 $end
$var wire 1 %$ in1 $end
$var wire 1 &$ sel $end
$var wire 1 '$ out $end
$upscope $end
$scope module mux_12 $end
$var wire 1 ($ in0 $end
$var wire 1 )$ in1 $end
$var wire 1 *$ sel $end
$var wire 1 +$ out $end
$upscope $end
$scope module mux_13 $end
$var wire 1 ,$ in0 $end
$var wire 1 -$ in1 $end
$var wire 1 .$ sel $end
$var wire 1 /$ out $end
$upscope $end
$scope module mux_14 $end
$var wire 1 0$ in0 $end
$var wire 1 1$ in1 $end
$var wire 1 2$ sel $end
$var wire 1 3$ out $end
$upscope $end
$scope module mux_15 $end
$var wire 1 4$ in0 $end
$var wire 1 5$ in1 $end
$var wire 1 6$ sel $end
$var wire 1 7$ out $end
$upscope $end
$scope module mux_16 $end
$var wire 1 8$ in0 $end
$var wire 1 9$ in1 $end
$var wire 1 :$ sel $end
$var wire 1 ;$ out $end
$upscope $end
$scope module mux_17 $end
$var wire 1 <$ in0 $end
$var wire 1 =$ in1 $end
$var wire 1 >$ sel $end
$var wire 1 ?$ out $end
$upscope $end
$scope module mux_20 $end
$var wire 1 @$ in0 $end
$var wire 1 A$ in1 $end
$var wire 1 B$ sel $end
$var wire 1 C$ out $end
$upscope $end
$scope module mux_21 $end
$var wire 1 D$ in0 $end
$var wire 1 E$ in1 $end
$var wire 1 F$ sel $end
$var wire 1 G$ out $end
$upscope $end
$scope module mux_22 $end
$var wire 1 H$ in0 $end
$var wire 1 I$ in1 $end
$var wire 1 J$ sel $end
$var wire 1 K$ out $end
$upscope $end
$scope module mux_23 $end
$var wire 1 L$ in0 $end
$var wire 1 M$ in1 $end
$var wire 1 N$ sel $end
$var wire 1 O$ out $end
$upscope $end
$scope module mux_24 $end
$var wire 1 P$ in0 $end
$var wire 1 Q$ in1 $end
$var wire 1 R$ sel $end
$var wire 1 S$ out $end
$upscope $end
$scope module mux_25 $end
$var wire 1 T$ in0 $end
$var wire 1 U$ in1 $end
$var wire 1 V$ sel $end
$var wire 1 W$ out $end
$upscope $end
$scope module mux_26 $end
$var wire 1 X$ in0 $end
$var wire 1 Y$ in1 $end
$var wire 1 Z$ sel $end
$var wire 1 [$ out $end
$upscope $end
$scope module mux_27 $end
$var wire 1 \$ in0 $end
$var wire 1 ]$ in1 $end
$var wire 1 ^$ sel $end
$var wire 1 _$ out $end
$upscope $end
$scope module mux_30 $end
$var wire 1 `$ in0 $end
$var wire 1 a$ in1 $end
$var wire 1 b$ sel $end
$var wire 1 c$ out $end
$upscope $end
$scope module mux_31 $end
$var wire 1 d$ in0 $end
$var wire 1 e$ in1 $end
$var wire 1 f$ sel $end
$var wire 1 g$ out $end
$upscope $end
$scope module mux_32 $end
$var wire 1 h$ in0 $end
$var wire 1 i$ in1 $end
$var wire 1 j$ sel $end
$var wire 1 k$ out $end
$upscope $end
$scope module mux_33 $end
$var wire 1 l$ in0 $end
$var wire 1 m$ in1 $end
$var wire 1 n$ sel $end
$var wire 1 o$ out $end
$upscope $end
$scope module mux_34 $end
$var wire 1 p$ in0 $end
$var wire 1 q$ in1 $end
$var wire 1 r$ sel $end
$var wire 1 s$ out $end
$upscope $end
$scope module mux_35 $end
$var wire 1 t$ in0 $end
$var wire 1 u$ in1 $end
$var wire 1 v$ sel $end
$var wire 1 w$ out $end
$upscope $end
$scope module mux_36 $end
$var wire 1 x$ in0 $end
$var wire 1 y$ in1 $end
$var wire 1 z$ sel $end
$var wire 1 {$ out $end
$upscope $end
$scope module mux_37 $end
$var wire 1 |$ in0 $end
$var wire 1 }$ in1 $end
$var wire 1 ~$ sel $end
$var wire 1 !% out $end
$upscope $end
$upscope $end
$upscope $end
$scope module group27ControlUnit $end
$var wire 8 "% OPCODE [7:0] $end
$var reg 3 #% ALUOP [2:0] $end
$var reg 1 H BEQ_TRIGGER $end
$var reg 1 G BNE_TRIGGER $end
$var reg 1 D J_TRIGGER $end
$var reg 1 B MUXCOMP $end
$var reg 1 @ MUXIMM $end
$var reg 1 3 WRITEENABLE $end
$upscope $end
$scope module group27Decorder $end
$var wire 32 $% INSTRUCTION [31:0] $end
$var reg 8 %% IMMEDIATE [7:0] $end
$var reg 8 &% OFFSET_8BIT [7:0] $end
$var reg 8 '% OPCODE [7:0] $end
$var reg 3 (% READREG1 [2:0] $end
$var reg 3 )% READREG2 [2:0] $end
$var reg 3 *% WRITEREG [2:0] $end
$upscope $end
$scope module group27MUXCompliment $end
$var wire 1 B SELECT $end
$var wire 8 +% IN2 [7:0] $end
$var wire 8 ,% IN1 [7:0] $end
$var reg 8 -% OUT [7:0] $end
$upscope $end
$scope module group27MUXImmediate $end
$var wire 8 .% IN1 [7:0] $end
$var wire 8 /% IN2 [7:0] $end
$var wire 1 @ SELECT $end
$var reg 8 0% OUT [7:0] $end
$upscope $end
$scope module group27Mux2to1_32bit $end
$var wire 1 0 SELECT $end
$var wire 32 1% IN2 [31:0] $end
$var wire 32 2% IN1 [31:0] $end
$var reg 32 3% OUT [31:0] $end
$upscope $end
$scope module group27PCAdder $end
$var wire 32 4% PC [31:0] $end
$var reg 32 5% PCOUT [31:0] $end
$upscope $end
$scope module group27PCAdderJBeq $end
$var wire 32 6% INSTRUCTION [31:0] $end
$var wire 32 7% PC [31:0] $end
$var wire 32 8% OFFSET [31:0] $end
$var reg 32 9% PCOUT_JBeq [31:0] $end
$upscope $end
$scope module group27ProgramCounter $end
$var wire 1 * CLK $end
$var wire 32 :% PCOUT_EXECUTING [31:0] $end
$var wire 1 , RESET $end
$var reg 32 ;% PC [31:0] $end
$upscope $end
$scope module group27RegisterFile $end
$var wire 1 * CLK $end
$var wire 8 <% IN [7:0] $end
$var wire 3 =% INADDRESS [2:0] $end
$var wire 8 >% OUT1 [7:0] $end
$var wire 3 ?% OUT1ADDRESS [2:0] $end
$var wire 8 @% OUT2 [7:0] $end
$var wire 3 A% OUT2ADDRESS [2:0] $end
$var wire 1 , RESET $end
$var wire 1 3 WRITE $end
$var integer 32 B% i [31:0] $end
$upscope $end
$scope module group27Shifter $end
$var wire 32 C% OFFSET [31:0] $end
$var reg 32 D% OFFSET_SHIFTED [31:0] $end
$upscope $end
$scope module group27SignExtend $end
$var wire 8 E% OFFSET_8BIT [7:0] $end
$var reg 32 F% OFFSET_32BIT [31:0] $end
$upscope $end
$scope module group27TwosCompliment $end
$var wire 8 G% IN [7:0] $end
$var reg 8 H% COMPLIMENT [7:0] $end
$var reg 8 I% TEMP [7:0] $end
$upscope $end
$upscope $end
$upscope $end
$enddefinitions $end
#0
$dumpvars
bx I%
bx H%
bx G%
bx F%
bx E%
bx D%
bx C%
b1000 B%
bx A%
bx @%
bx ?%
bx >%
bx =%
bx <%
bx ;%
bx :%
bx 9%
bx 8%
bx 7%
bx 6%
bx 5%
bx 4%
bx 3%
bx 2%
bx 1%
bx 0%
bx /%
bx .%
bx -%
bx ,%
bx +%
bx *%
bx )%
bx (%
bx '%
bx &%
bx %%
bx $%
bx #%
bx "%
x!%
x~$
x}$
x|$
x{$
xz$
xy$
xx$
xw$
xv$
xu$
xt$
xs$
xr$
xq$
xp$
xo$
xn$
0m$
xl$
xk$
xj$
0i$
xh$
xg$
xf$
0e$
xd$
xc$
xb$
0a$
x`$
x_$
x^$
x]$
x\$
x[$
xZ$
xY$
xX$
xW$
xV$
xU$
xT$
xS$
xR$
xQ$
xP$
xO$
xN$
xM$
xL$
xK$
xJ$
xI$
xH$
xG$
xF$
0E$
xD$
xC$
xB$
0A$
x@$
x?$
x>$
x=$
x<$
x;$
x:$
x9$
x8$
x7$
x6$
x5$
x4$
x3$
x2$
x1$
x0$
x/$
x.$
x-$
x,$
x+$
x*$
x)$
x($
x'$
x&$
x%$
x$$
x#$
x"$
0!$
x~#
bx }#
bx |#
bx {#
bx z#
bx y#
bx x#
bx w#
xv#
xu#
xt#
xs#
xr#
xq#
xp#
xo#
xn#
xm#
xl#
xk#
xj#
xi#
xh#
xg#
xf#
xe#
0d#
xc#
xb#
xa#
0`#
x_#
x^#
x]#
0\#
x[#
xZ#
xY#
0X#
xW#
xV#
xU#
xT#
xS#
xR#
xQ#
xP#
xO#
xN#
xM#
xL#
xK#
xJ#
xI#
xH#
xG#
xF#
xE#
xD#
xC#
xB#
xA#
x@#
x?#
x>#
x=#
0<#
x;#
x:#
x9#
08#
x7#
x6#
x5#
x4#
x3#
x2#
x1#
x0#
x/#
x.#
x-#
x,#
x+#
x*#
x)#
x(#
x'#
x&#
x%#
x$#
x##
x"#
x!#
x~"
x}"
x|"
x{"
xz"
xy"
xx"
xw"
0v"
xu"
bx t"
bx s"
bx r"
bx q"
bx p"
bx o"
bx n"
xm"
xl"
xk"
xj"
xi"
xh"
xg"
xf"
xe"
xd"
xc"
xb"
xa"
x`"
x_"
x^"
x]"
x\"
x["
xZ"
xY"
xX"
xW"
xV"
xU"
xT"
xS"
xR"
xQ"
xP"
xO"
xN"
xM"
xL"
xK"
xJ"
xI"
xH"
xG"
xF"
xE"
xD"
xC"
xB"
xA"
x@"
x?"
x>"
x="
x<"
x;"
x:"
x9"
x8"
x7"
x6"
x5"
x4"
x3"
x2"
x1"
x0"
x/"
x."
x-"
x,"
x+"
x*"
x)"
x("
x'"
x&"
x%"
x$"
x#"
x""
x!"
x~
x}
x|
x{
xz
xy
xx
xw
xv
xu
xt
xs
xr
xq
xp
xo
xn
xm
xl
bx k
bx j
bx i
bx h
bx g
bx f
bx e
bx d
bx c
bx b
bx a
bx `
bx _
bx ^
bx ]
bx \
bx [
bx Z
bx Y
bx X
bx W
bx V
bx U
bx T
bx S
bx R
bx Q
bx P
bx O
bx N
bx M
bx L
bx K
bx J
bx I
xH
xG
bx F
bx E
xD
bx C
xB
bx A
x@
bx ?
bx >
bx =
bx <
bx ;
bx :
bx 9
bx 8
bx 7
bx 6
bx 5
bx 4
x3
bx 2
x1
x0
x/
x.
bx -
1,
bx +
0*
bx )
bx (
bx '
bx &
bx %
bx $
bx #
bx "
bx !
$end
#4
1*
#5
b0 (
b0 '
b0 &
b0 %
b0 $
b0 #
b0 "
b0 !
b1000 B%
b0 )
b0 ;
b0 4%
b0 ;%
#6
b100 9
b100 3%
b100 :%
b100 :
b100 2%
b100 5%
b100 7%
#7
b1 2
b1 *%
b1 =%
b0 7
b0 (%
b0 ?%
b101 6
b101 )%
b101 A%
b101 E
b101 %%
b101 /%
b0 <
b0 "%
b0 '%
b10000000000000101 +
b10000000000000101 -
b10000000000000101 $%
b10000000000000101 6%
#8
0|"
0"#
0&#
0*#
03$
0/$
0+$
0'$
0u"
0z"
0y"
0~"
0}"
0$#
0##
0(#
0,$
01$
0($
0-$
0$$
0)$
0~#
0%$
0:#
0>#
0B#
b0xxxx n"
0F#
0O$
0K$
0G$
b0xxxx w#
0C$
07#
0@#
0;#
0D#
0?#
0H#
0C#
0L#
0L$
0U$
0H$
0Q$
0D$
0M$
0@$
0I$
0Z#
0^#
0b#
b0xxxx o"
0f#
bx00000 p"
0x"
b0xxx y#
0#$
0o$
0k$
0g$
b0xxxx x#
0c$
1Y#
1]#
1a#
1e#
1i#
1m#
1q#
1u#
09#
0=#
0A#
0E#
0I#
0M#
0Q#
0U#
1w"
1{"
1!#
1%#
1)#
1-#
11#
15#
00
1>$
1:$
16$
12$
1.$
1*$
1&$
1"$
0^$
0Z$
0V$
0R$
0N$
0J$
0F$
0B$
1~$
1z$
1v$
1r$
1n$
1j$
1f$
1b$
b101 z#
b101 q"
1,"
1("
1$"
1~
1z
1v
1r
1n
0L"
0H"
0D"
0@"
0<"
08"
04"
00"
1l"
1h"
1d"
1`"
1\"
1X"
1T"
1P"
b101 h
0/
0.
b101 A
b101 T
b101 X
b101 [
b101 ^
b101 `
b101 c
b101 i
b101 r"
b101 {#
b101 0%
0G
0H
0D
13
1@
0B
b0 J
b0 K
b0 #%
0*
#9
0?$
0;$
b0 y#
07$
06#
02#
b0 p"
0.#
0o
0-"
0)"
0%"
0!"
0{
0w
b0 g
0s
0<$
08$
0=$
04$
09$
00$
05$
03#
0/#
04#
0+#
00#
0'#
0,#
0m
0*"
0&"
0+"
0""
0'"
0|
0#"
0x
0}
0t
0y
0p
0u
0l
0q
0_$
0[$
0W$
b0 w#
0S$
0V#
0R#
0N#
b0 n"
0J#
0M"
0I"
0E"
0A"
0="
09"
05"
b0 e
01"
0\$
0X$
0T$
0]$
0P$
0Y$
0S#
0O#
0K#
0T#
0G#
0P#
03"
0J"
0/"
0F"
0B"
0K"
0>"
0G"
0:"
0C"
06"
0?"
02"
0;"
0."
07"
0!%
0{$
0w$
b0 x#
0s$
0v#
0r#
0n#
b0 o"
0j#
0m"
0i"
0e"
0a"
0]"
0Y"
0U"
b0 f
0Q"
0}$
0|$
0y$
0x$
0u$
0t$
0q$
0p$
0l$
0h$
0d$
0`$
0t#
0s#
0p#
0o#
0l#
0k#
0h#
0g#
0c#
0_#
0[#
0W#
0k"
0j"
0g"
0f"
0c"
0b"
0_"
0^"
0["
0Z"
0W"
0V"
0S"
0R"
0O"
0N"
b0 C
b0 -%
b0 .%
b0 I%
bx1x1 O
bx1x1 b
b0x0x R
b0x0x Z
b101 I
b101 V
b101 <%
b101 Q
b101 ]
b0 5
b0 U
b0 Y
b0 \
b0 a
b0 d
b0 j
b0 s"
b0 |#
b0 >%
b0 4
b0 ,%
b0 @%
b0 G%
#10
b101 O
b101 b
b0 R
b0 Z
b0 F
b0 +%
b0 H%
b0 P
b0 _
0,
#11
01
b0 N
b0 k
b0 L
b0 }#
b0 M
b0 t"
b101 S
b101 W
#12
1*
#13
b101 "
b100 )
b100 ;
b100 4%
b100 ;%
#14
b1000 9
b1000 3%
b1000 :%
b1000 :
b1000 2%
b1000 5%
b1000 7%
#15
0Y#
0]#
0a#
0e#
0i#
0m#
0q#
0u#
0~$
0z$
0v$
0r$
0n$
0j$
0f$
0b$
b1 z#
b1 q"
0l"
0h"
0d"
0`"
0\"
0X"
0T"
0P"
b1 h
b1 A
b1 T
b1 X
b1 [
b1 ^
b1 `
b1 c
b1 i
b1 r"
b1 {#
b1 0%
b10 2
b10 *%
b10 =%
b1 6
b1 )%
b1 A%
b1 E
b1 %%
b1 /%
b100000000000000001 +
b100000000000000001 -
b100000000000000001 $%
b100000000000000001 6%
#16
b1 O
b1 b
b1 I
b1 V
b1 <%
b1 Q
b1 ]
0*
#17
b101 C
b101 -%
b101 .%
b11111011 I%
b1 S
b1 W
b101 4
b101 ,%
b101 @%
b101 G%
#18
b11111011 F
b11111011 +%
b11111011 H%
#20
1*
#21
b1 #
b1000 )
b1000 ;
b1000 4%
b1000 ;%
#22
b1100 9
b1100 3%
b1100 :%
b1100 :
b1100 2%
b1100 5%
b1100 7%
#23
b11 2
b11 *%
b11 =%
b110000000000000001 +
b110000000000000001 -
b110000000000000001 $%
b110000000000000001 6%
#24
0*
#28
1*
#29
b1 $
b1100 )
b1100 ;
b1100 4%
b1100 ;%
#30
b10000 9
b10000 3%
b10000 :%
b10000 :
b10000 2%
b10000 5%
b10000 7%
#31
1Y#
1]#
1a#
1e#
1i#
1m#
1q#
1u#
1~$
1z$
1v$
1r$
1n$
1j$
1f$
1b$
b101 z#
b101 q"
1l"
1h"
1d"
1`"
1\"
1X"
1T"
1P"
b101 h
b101 A
b101 T
b101 X
b101 [
b101 ^
b101 `
b101 c
b101 i
b101 r"
b101 {#
b101 0%
b100 2
b100 *%
b100 =%
b101 6
b101 )%
b101 A%
b101 E
b101 %%
b101 /%
b1000000000000000101 +
b1000000000000000101 -
b1000000000000000101 $%
b1000000000000000101 6%
#32
b101 O
b101 b
b101 I
b101 V
b101 <%
b101 Q
b101 ]
0*
#33
b0 C
b0 -%
b0 .%
b0 I%
b101 S
b101 W
b0 4
b0 ,%
b0 @%
b0 G%
#34
b0 F
b0 +%
b0 H%
#36
1*
#37
b101 %
b10000 )
b10000 ;
b10000 4%
b10000 ;%
#38
b10100 9
b10100 3%
b10100 :%
b10100 :
b10100 2%
b10100 5%
b10100 7%
#39
0Y#
0]#
0a#
0e#
0i#
0m#
0q#
0u#
19#
1=#
1A#
1E#
1I#
1M#
1Q#
1U#
1^$
1Z$
1V$
1R$
1N$
1J$
1F$
1B$
0~$
0z$
0v$
0r$
0n$
0j$
0f$
0b$
b11 z#
b11 q"
1L"
1H"
1D"
1@"
1<"
18"
14"
10"
0l"
0h"
0d"
0`"
0\"
0X"
0T"
0P"
b11 h
b11 A
b11 T
b11 X
b11 [
b11 ^
b11 `
b11 c
b11 i
b11 r"
b11 {#
b11 0%
b1 2
b1 *%
b1 =%
b10 7
b10 (%
b10 ?%
b11 6
b11 )%
b11 A%
b11 E
b11 %%
b11 /%
b1110 <
b1110 "%
b1110 '%
b1110000000010000001000000011 +
b1110000000010000001000000011 -
b1110000000010000001000000011 $%
b1110000000010000001000000011 6%
